{"laptop": [{"result": {"status": {"code": 200, "data": "success", "executionTime": "1.10", "requestTime": "2023-06-14 01:45:50", "requestId": "829dd96362f93f998eaf4025eb270b51", "endpoint": "item_search", "apiVersion": "3.2.4", "functionsVersion": "3.0.8", "la": "0.00", "pmu": 741712, "mu": 741392}, "settings": {"q": "laptop", "catId": "", "brandId": "", "loc": "", "attr": "", "sort": "default", "page": "1", "startPrice": "", "endPrice": "", "region": "US", "locale": "en_US", "currency": "USD"}, "base": {"hasNextPage": true, "totalResults": 338557, "pageSize": 20, "q": "laptop", "sortValues": ["default", "salesDesc", "priceAsc", "priceDesc", "latest"], "locationList": [{"name": "US"}, {"name": "TR"}, {"name": "CN"}], "attributeList": [{"name": "Display Size", "id": 48, "list": [{"name": "14\"", "id": 349908, "count": 1062}, {"name": "15.6\"", "id": 200005075, "count": 1548}]}, {"name": "Color", "id": 14, "list": [{"name": "Black", "id": 193, "count": 333505}, {"name": "White", "id": 29, "count": 257163}, {"name": "Green", "id": 175, "count": 241254}, {"name": "Red", "id": 10, "count": 188983}, {"name": "Blue", "id": 173, "count": 186710}, {"name": "Yellow", "id": 366, "count": 99809}, {"name": "Gold", "id": 350850, "count": 91651}, {"name": "Purple", "id": 496, "count": 82830}, {"name": "Gray", "id": 691, "count": 76892}, {"name": "Pink", "id": 1052, "count": 58353}, {"name": "Orange", "id": 350852, "count": 53829}, {"name": "Silver", "id": 350853, "count": 43513}, {"name": "Rose Red", "id": 200211869, "count": 15147}, {"name": "champagne", "id": 200001951, "count": 3225}, {"name": "Brown", "id": 350686, "count": 3188}]}, {"name": "Feature", "id": 217, "list": [{"name": "bluetooth", "id": 271, "count": 4485}, {"name": "Camera", "id": 201299412, "count": 3028}, {"name": "None", "id": 350525, "count": 7826}, {"name": "Backlit Keyboard", "id": 200960630, "count": 2521}, {"name": "Fingerprint Recognition", "id": 201450544, "count": 1622}]}, {"name": "Display Ratio", "id": 200000559, "list": [{"name": "16:9", "id": 360658, "count": 3676}, {"name": "16:10", "id": 200002727, "count": 1651}]}], "categoryList": {"list": [{"name": "Computer & Office", "id": 7, "count": 2321534, "subList": [{"name": "Laptops", "id": 702, "count": 5528}, {"name": "Laptop Stand", "id": 200216761, "count": 22310}, {"name": "Laptop Bags & Cases", "id": 380110, "count": 105}, {"name": "Mice", "id": 70805, "count": 60}]}, {"name": "Education & Office Supplies", "id": 21, "count": 46081}, {"name": "Automobiles & Motorcycles", "id": 34, "count": 24692, "subList": [{"name": "Laptop Stand", "id": 200004796, "count": 22310}]}, {"name": "Consumer Electronics", "id": 44, "count": 60300}, {"name": "Mother & Kids", "id": 1501, "count": 12871}, {"name": "Home Appliances", "id": 6, "count": 11753}, {"name": "Toys & Hobbies", "id": 26, "count": 7725, "subList": [{"name": "Stickers", "id": 200004596, "count": 6972}]}, {"name": "Cellphones & Telecommunications", "id": 509, "count": 10283}, {"name": "Home & Garden", "id": 15, "count": 6656}, {"name": "Electronic Components & Supplies", "id": 502, "count": 4450}, {"name": "Luggage & Bags", "id": 1524, "count": 48, "subList": [{"name": "Backpacks", "id": 200010058, "count": 48}]}, {"name": "Sports & Entertainment", "id": 18, "count": 3285}, {"name": "Home Improvement", "id": 13, "count": 13272}, {"name": "Security & Protection", "id": 30, "count": 1494}, {"name": "Novelty & Special Use", "id": 200000875, "count": 1212}, {"name": "Tools", "id": 1420, "count": 958}, {"name": "Furniture", "id": 1503, "count": 232}, {"name": "Beauty & Health", "id": 66, "count": 220}, {"name": "Jewelry & Accessories", "id": 1509, "count": 114}, {"name": "Women's Clothing", "id": 100003109, "count": 94}, {"name": "Lights & Lighting", "id": 39, "count": 76}]}}, "resultList": [{"item": {"itemId": 1005004771908192, "title": "15.6 Inch 16GB RAM 1920X1080 Laptop Windows 10/11 128G/512GB/2TB SSD Intel 11th Gen Processor Fingerprint Unlock Bluetooth", "sales": 78, "image": "//ae01.alicdn.com/kf/S23e753333b0045249cc22878344980a9R.jpg", "sku": {"def": {"price": null, "promotionPrice": 241.45, "prices": {"pc": 241.45, "app": 241.45}}}, "averageStarRate": 4.6}, "delivery": {"freeShipping": true, "shippingFee": 0, "shippingDisplay": "Free shipping"}}, {"item": {"itemId": 1005005398267431, "title": "Adreamer LeoBook 13 Laptops Netbook Office School Notebooks Windows 10 13\" Intel Celeron N4020 8G 1T SSD WiFi PC for Student", "sales": 78, "image": "//ae01.alicdn.com/kf/S0532262d6ff14bd49875d560059f10b5H.png", "sku": {"def": {"price": null, "promotionPrice": 171.14, "prices": {"pc": 171.14, "app": 171.14}}}, "averageStarRate": 4.3}, "delivery": {"freeShipping": true, "shippingFee": 0, "shippingDisplay": "Free shipping"}}, {"item": {"itemId": 1005005072887853, "title": "Notebook 15 Inch Laptop Windows 11 10 Pro Cheap Portable Intel 8G RAM 128GB 256GB 512GB 1TB SSD Option", "sales": 82, "image": "//ae01.alicdn.com/kf/Hbe3051d0c31b4479a4a6b1b2b278fc066.jpg", "sku": {"def": {"price": null, "promotionPrice": 215.4, "prices": {"pc": 215.4, "app": 215.4}}}, "averageStarRate": 4}, "delivery": {"freeShipping": true, "shippingFee": 0, "shippingDisplay": "Free shipping"}}, {"item": {"itemId": 1005005468645559, "title": "Dere R14 Laptop 14-inch IPS Full HD Intel Celeron N4500 12GB RAM + 512GB SSD Learning Office Laptop Computer Windows 11 Notebook", "sales": 93, "image": "//ae01.alicdn.com/kf/S559038617791493f811fdaed465e4e7ca.jpg", "sku": {"def": {"price": null, "promotionPrice": 171.44, "prices": {"pc": 171.44, "app": 171.44}}}, "averageStarRate": 5}, "delivery": {"freeShipping": true, "shippingFee": 0, "shippingDisplay": "Free shipping"}}, {"item": {"itemId": 1005004878344857, "title": "New 15.6 Inch Gaming laptops AMD Ryzen9 5900HX 4000/5000 Series Windows10/11 Full-function Type-C interface Fingerprint Unlock", "sales": 24, "image": "//ae01.alicdn.com/kf/S3ad3dbbe041243fbae29637f4c9ca18fX.jpg", "sku": {"def": {"price": null, "promotionPrice": 414.06, "prices": {"pc": 414.06, "app": 414.06}}}, "averageStarRate": 4.7}, "delivery": {"freeShipping": true, "shippingFee": 0, "shippingDisplay": "Free shipping"}}, {"item": {"itemId": 1005004011478751, "title": "14 Inch Touch Screen Laptop Windows 11pro Intel J5040 IPS 8GB DDR4 512GB SSD Notebook Computer WiFi Bluetooth Camera Fingerprint", "sales": 48, "image": "//ae01.alicdn.com/kf/S66aabf33c4094fa1b93deacd4fa85f9fI.jpg", "sku": {"def": {"price": null, "promotionPrice": 379.27, "prices": {"pc": 379.27, "app": 379.27}}}, "averageStarRate": 4.8}, "delivery": {"freeShipping": false, "shippingFee": null, "shippingDisplay": ""}}, {"item": {"itemId": 1005002710395635, "title": "Xiaomi RedmiBook Laptop Pro14 Ryzen AMD R7-5700U/R5-5500U 2.5K Super Retina Screen 14Inch 16GB RAM 512GB/1TB SSD Notebook PC", "sales": 89, "image": "//ae01.alicdn.com/kf/S3beabe54529e4c09aee3e16b5b6fb989Y.png", "sku": {"def": {"price": null, "promotionPrice": 609.98, "prices": {"pc": 609.98, "app": 609.98}}}, "averageStarRate": 4.7}, "delivery": {"freeShipping": true, "shippingFee": 0, "shippingDisplay": "Free shipping"}}, {"item": {"itemId": 1005005014841431, "title": "\u3010Super Deal\u301112th Gen Mini Laptop Intel N100 Quad Core 8 Inch Screen LPDDR5 12G 4800MHz Windows10/11Pro AX WiFi6 BT5.2 RJ45 LAN", "sales": 27, "image": "//ae01.alicdn.com/kf/Sde5b5fd0a6234d65be1dc9ecb4da94a05.jpg", "sku": {"def": {"price": null, "promotionPrice": 339.18, "prices": {"pc": 339.18, "app": 339.18}}}, "averageStarRate": null}, "delivery": {"freeShipping": true, "shippingFee": 0, "shippingDisplay": "Free shipping"}}, {"item": {"itemId": 1005004082270116, "title": "Byone AMD Ryzen R5 5600U Gaming Laptop DDR4 16G 32G RAM 512G 1T SSD Windows11 Computer AMD Ryzen R3 15.6Inch Design Laptops", "sales": 38, "image": "//ae01.alicdn.com/kf/S6bfa21feedd54241b0578e7d04073092w.jpg", "sku": {"def": {"price": null, "promotionPrice": 430.35, "prices": {"pc": 430.35, "app": 430.35}}}, "averageStarRate": 4.6}, "delivery": {"freeShipping": true, "shippingFee": 0, "shippingDisplay": "Free shipping"}}, {"item": {"itemId": 1005005566077095, "title": "QMDZ 8G DDR4 14.1 Inch Intel Quad Core Laptop Ram 8G ROM 128 256 512GB SSD Windows 10 11 Pro Cheap Student Laptop Computer J4105", "sales": 31, "image": "//ae01.alicdn.com/kf/S861ebe8740404112bf1bfa09b28ec6aeP.jpg", "sku": {"def": {"price": null, "promotionPrice": 178.08, "prices": {"pc": 178.08, "app": 178.08}}}, "averageStarRate": 5}, "delivery": {"freeShipping": true, "shippingFee": 0, "shippingDisplay": "Free shipping"}}, {"item": {"itemId": 1005005544479230, "title": "Intel J4125 N5095 N5105 Laptop Windows 10 Office Notebook PC 8G 16G Rom SSD 15.6-inch IPS 180\u00b0 Opening Angle Portable Netbook", "sales": 22, "image": "//ae01.alicdn.com/kf/Se467b87afa2047d59337450c3c6eaa3dl.jpg", "sku": {"def": {"price": null, "promotionPrice": 206.03, "prices": {"pc": 206.03, "app": 206.03}}}, "averageStarRate": 5}, "delivery": {"freeShipping": false, "shippingFee": null, "shippingDisplay": ""}}, {"item": {"itemId": 1005005216969179, "title": "CHUWI GemiBook XPro 14.1-inch UHD Screen Intel N100 Laptop 8GB RAM 256GB SSD Quad Core Processors Windows 11 WIFI AX101 Notebook", "sales": 163, "image": "//ae01.alicdn.com/kf/S8696dcd09bc5446686bd7f45b3623d36e.png", "sku": {"def": {"price": null, "promotionPrice": 239.2, "prices": {"pc": 239.2, "app": 239.2}}}, "averageStarRate": 4.3}, "delivery": {"freeShipping": true, "shippingFee": 0, "shippingDisplay": "Free shipping"}}, {"item": {"itemId": 1005002768113019, "title": "Topton Mini Pocket Gaming Laptop 7 Inch Touch Screen J4105 J4125 12GB DDR4 Max 2TB Ultrabook Notebook 2.0MP Netbook Windows 11", "sales": 99, "image": "//ae01.alicdn.com/kf/Hb02cb418d9fe4160b5532320f32fb0d65.jpg", "sku": {"def": {"price": null, "promotionPrice": 245.18, "prices": {"pc": 245.18, "app": 245.18}}}, "averageStarRate": 4.8}, "delivery": {"freeShipping": true, "shippingFee": 0, "shippingDisplay": "Free shipping"}}, {"item": {"itemId": 1005003613296156, "title": "16.1 Inch Gaming Laptop Intel i9 10885H i7 Nvidia GTX 1650 4G IPS 1920x1080 144Hz Ultrabook Windows 11 Notebook Computer Laptops", "sales": 83, "image": "//ae01.alicdn.com/kf/S5bab7b2556a04882a7e272e60491861cT.jpg", "sku": {"def": {"price": null, "promotionPrice": 691.52, "prices": {"pc": 691.52, "app": 691.52}}}, "averageStarRate": 4.8}, "delivery": {"freeShipping": true, "shippingFee": 0, "shippingDisplay": "Free shipping"}}, {"item": {"itemId": 1005005037274107, "title": "Dual Screen Laptop 16.1 Inch + 14.1 Inch Touch Screen Core i7 10750H Processor Gaming Laptop DDR4 16/32GB SSD Notebook Computer", "sales": 33, "image": "//ae01.alicdn.com/kf/Sff33eb058ee247d18e91475b0f34940bC.jpg", "sku": {"def": {"price": null, "promotionPrice": 559, "prices": {"pc": 559, "app": 559}}}, "averageStarRate": 5}, "delivery": {"freeShipping": false, "shippingFee": null, "shippingDisplay": ""}}, {"item": {"itemId": 1005005305558814, "title": "2023 Gaming Laptop Computer Office Business Notebooks Win11 15.6\" Intel Core I7-9750H Dual DDR4 64GB+2TB SSD RJ45 Type-C Camera", "sales": 21, "image": "//ae01.alicdn.com/kf/Sfee0e39e02af429d8cac2b36109e7c7eW.jpg", "sku": {"def": {"price": null, "promotionPrice": 472, "prices": {"pc": 472, "app": 472}}}, "averageStarRate": 5}, "delivery": {"freeShipping": true, "shippingFee": 0, "shippingDisplay": "Free shipping"}}, {"item": {"itemId": 1005003293974148, "title": "Xiaomi Redmi G Pro Gaming Laptop 2022 AMD R7 6800H Geforce RTX 3060 GPU 16GB/32GB RAM 512GB/1TB SSD 16.1Inch 240Hz Game Noteboo", "sales": 48, "image": "//ae01.alicdn.com/kf/Sec1458df56964a2fa433d505a173d6dfa.png", "sku": {"def": {"price": null, "promotionPrice": 1158.87, "prices": {"pc": 1158.87, "app": 1158.87}}}, "averageStarRate": 5}, "delivery": {"freeShipping": true, "shippingFee": 0, "shippingDisplay": "Free shipping"}}, {"item": {"itemId": 1005004388460313, "title": "Xiaomi Redmi G Pro Gaming Laptop RTX3060 AMD Ryzen7 R7 6800H 16GB 512GB SSD Notebook ddr5 16 Inch 240Hz LCD Screen Computer 2022", "sales": 33, "image": "//ae01.alicdn.com/kf/Se863bea1023542a6b228031d9e3f7b89K.jpg", "sku": {"def": {"price": null, "promotionPrice": 914.95, "prices": {"pc": 914.95, "app": 914.95}}}, "averageStarRate": 4.5}, "delivery": {"freeShipping": true, "shippingFee": 0, "shippingDisplay": "Free shipping"}}, {"item": {"itemId": 1005004559534031, "title": "Xiaomi Redmi G Gaming Laptop 2022 Intel Core i7-12650H RTX3050Ti Notebook 16Inch 2.5K 165Hz 16GB RAM 512GB SSD Pc Gamer Computer", "sales": 21, "image": "//ae01.alicdn.com/kf/S74cacd24ca7840f984b74e36e19accf65.jpg", "sku": {"def": {"price": null, "promotionPrice": 784.87, "prices": {"pc": 784.87, "app": 784.87}}}, "averageStarRate": 5}, "delivery": {"freeShipping": true, "shippingFee": 0, "shippingDisplay": "Free shipping"}}, {"item": {"itemId": 1005004450561176, "title": "Performance Laptop Computer 5G Wifi AMD Ryzen 5 3500U 4500U Ryzen 7 2700U 3700U 4700U Windows10 11 Pro Gaming IPS Laptop", "sales": 40, "image": "//ae01.alicdn.com/kf/S3e42e7bd46aa443480aa9e40e594f805o.jpg", "sku": {"def": {"price": null, "promotionPrice": 373.79, "prices": {"pc": 373.79, "app": 373.79}}}, "averageStarRate": 4.7}, "delivery": {"freeShipping": false, "shippingFee": null, "shippingDisplay": ""}}]}}, {"message": "You have exceeded the rate limit per second for your plan, BASIC, by the API provider"}], "phone": [{"message": "You have exceeded the rate limit per second for your plan, BASIC, by the API provider"}, {"message": "You have exceeded the rate limit per second for your plan, BASIC, by the API provider"}], "ipad": [{"message": "You have exceeded the rate limit per second for your plan, BASIC, by the API provider"}, {"message": "You have exceeded the rate limit per second for your plan, BASIC, by the API provider"}]}